Tidying Methods for mmrm Objects — mmrm_tidiers • mmrm
…
#>  6 AVISITVIS2       4.84       0.802  144.    6.04   1.27e- 8    3.51       6.17
#>  7 AVISITVIS3      10.3        0.823  156.   12.6    1.86e-25    8.98      11.7 
#>  8 AVISITVIS4      15.1        1.31   138.   11.5    8.11e-22   12.9       17.2 
#>  9 RACEBlack or …   1.53       0.624  169.    2.45   1.53e- 2    0.498      2.56
#> 10 RACEWhite        5.64       0.666  157.    8.48   1.56e-14    4.54       6.74
#> 11 SEXFemale        0.326      0.532  166.    0.613  5.41e- 1   -0.554      1.21
# Applying glance method to return summary table of goodness of fit statistics.
fit |> glance()
#> # A tibble: 1 × 4
#>     AIC   BIC logLik deviance
#>   <dbl> <dbl>  <dbl>    <dbl>
#> 1 3406. 3439. -1693.    3386.
# Applying augment method to return merged `tibble` of model data, fitted and residuals.
fit |> augment()
#> # A tibble: 537 × 9
#>    .rownames  FEV1 RACE               SEX   ARMCD AVISIT USUBJID .fitted  .resid
#>        <dbl> <dbl> <fct>              <fct> <fct> <fct>  <fct>     <dbl>   <dbl>
#>  1         2  40.0 Black or African … Fema… TRT   VIS2   PT1        41.2  -1.23 
#>  2         4  20.5 Black or African … Fema… TRT   VIS4   PT1        52.1 -31.6  
#>  3         6  31.5 Asian              Male  PBO   VIS2   PT2        35.6  -4.16 
#>  4         7  36.9 Asian              Male  PBO   VIS3   PT2        41.1  -4.24 
#>  5         8  48.8 Asian              Male  PBO   VIS4   PT2        45.8   2.98 
#>  6        10  36.0 Black or African … Fema… PBO   VIS2   PT3        37.5  -1.49 
#>  7        12  37.2 Black or African … Fema… PBO   VIS4   PT3        47.7 -10.5  
#>  8        13  33.9 Asian              Fema… TRT   VIS1   PT4        34.9  -0.985
#>  9        14  33.7 Asian              Fema… TRT   VIS2   PT4        39.7  -5.93 
#> 10        16  54.5 Asian              Fema… TRT   VIS4   PT4        50.6   3.89 
#> # ℹ 527 more rows
fit |> augment(interval = "confidence")
#> # A tibble: 537 × 12
#>    .rownames  FEV1 RACE         SEX   ARMCD AVISIT USUBJID .fitted .lower .upper
#>        <dbl> <dbl> <fct>        <fct> <fct> <fct>  <fct>     <dbl>  <dbl>  <dbl>
#>  1         2  40.0 Black or Af… Fema… TRT   VIS2   PT1        41.2   41.2   41.2
#>  2         4  20.5 Black or Af… Fema… TRT   VIS4   PT1        52.1   52.0   52.2
#>  3         6  31.5 Asian        Male  PBO   VIS2   PT2        35.6   35.6   35.7
#>  4         7  36.9 Asian        Male  PBO   VIS3   PT2        41.1   41.1   41.1
#>  5         8  48.8 Asian        Male  PBO   VIS4   PT2        45.8   45.7   45.9
#>  6        10  36.0 Black or Af… Fema… PBO   VIS2   PT3        37.5   37.4   37.5
#>  7        12  37.2 Black or Af… Fema… PBO   VIS4   PT3        47.7   47.6   47.8
#>  8        13  33.9 Asian        Fema… TRT   VIS1   PT4        34.9   34.8   34.9
#>  9        14  33.7 Asian        Fema… TRT   VIS2   PT4        39.7   39.6   39.7
#> 10        16  54.5 Asian        Fema… TRT   VIS4   PT4        50.6   50.5   50.7
#> # ℹ 527 more rows
#> # ℹ 2 more variables: .se.fit <dbl>, .resid <dbl>
fit |> augment(type.residuals = "pearson")
#> # A tibble: 537 × 9
#>    .rownames  FEV1 RACE                SEX   ARMCD AVISIT USUBJID .fitted .resid
#>        <dbl> <dbl> <fct>               <fct> <fct> <fct>  <fct>     <dbl>  <dbl>
#>  1         2  40.0 Black or African A… Fema… TRT   VIS2   PT1        41.2 -0.240
#>  2         4  20.5 Black or African A… Fema… TRT   VIS4   PT1        52.1 -3.23 
#>  3         6  31.5 Asian               Male  PBO   VIS2   PT2        35.6 -0.807
#>  4         7  36.9 Asian               Male  PBO   VIS3   PT2        41.1 -1.10 
#>  5         8  48.8 Asian               Male  PBO   VIS4   PT2        45.8  0.305
#>  6        10  36.0 Black or African A… Fema… PBO   VIS2   PT3        37.5 -0.288
#>  7        12  37.2 Black or African A… Fema… PBO   VIS4   PT3        47.7 -1.08 
#>  8        13  33.9 Asian               Fema… TRT   VIS1   PT4        34.9 -0.155
#>  9        14  33.7 Asian               Fema… TRT   VIS2   PT4        39.7 -1.15 
#> 10        16  54.5 Asian               Fema… TRT   VIS4   PT4        50.6  0.398
#> # ℹ 527 more rows
…
