…
Finally, we can use the `augment` method to return a merged `tibble` of
the data, fitted values and residuals:

``` r
fit |>
  augment()
#> # A tibble: 537 × 8
#>    .rownames  FEV1 RACE                     ARMCD AVISIT USUBJID .fitted  .resid
#>        <dbl> <dbl> <fct>                    <fct> <fct>  <fct>     <dbl>   <dbl>
#>  1         2  40.0 Black or African Americ… TRT   VIS2   PT1        41.1  -1.09 
#>  2         4  20.5 Black or African Americ… TRT   VIS4   PT1        51.9 -31.4  
#>  3         6  31.5 Asian                    PBO   VIS2   PT2        35.8  -4.34 
#>  4         7  36.9 Asian                    PBO   VIS3   PT2        41.3  -4.42 
#>  5         8  48.8 Asian                    PBO   VIS4   PT2        46.0   2.79 
#>  6        10  36.0 Black or African Americ… PBO   VIS2   PT3        37.3  -1.31 
#>  7        12  37.2 Black or African Americ… PBO   VIS4   PT3        47.5 -10.4  
#>  8        13  33.9 Asian                    TRT   VIS1   PT4        34.7  -0.851
#>  9        14  33.7 Asian                    TRT   VIS2   PT4        39.6  -5.81 
#> 10        16  54.5 Asian                    TRT   VIS4   PT4        50.4   4.02 
#> # ℹ 527 more rows
```

Also here we can specify details for the prediction intervals and type
of residuals via the arguments:

``` r
fit |>
  augment(interval = "confidence", type.residuals = "normalized")
#> # A tibble: 537 × 11
#>    .rownames  FEV1 RACE       ARMCD AVISIT USUBJID .fitted .lower .upper .se.fit
#>        <dbl> <dbl> <fct>      <fct> <fct>  <fct>     <dbl>  <dbl>  <dbl>   <dbl>
#>  1         2  40.0 Black or … TRT   VIS2   PT1        41.1   41.0   41.1   0.515
#>  2         4  20.5 Black or … TRT   VIS4   PT1        51.9   51.8   52.0   1.55 
#>  3         6  31.5 Asian      PBO   VIS2   PT2        35.8   35.8   35.8   0.486
#>  4         7  36.9 Asian      PBO   VIS3   PT2        41.3   41.3   41.3   0.325
#>  5         8  48.8 Asian      PBO   VIS4   PT2        46.0   45.9   46.1   1.53 
#>  6        10  36.0 Black or … PBO   VIS2   PT3        37.3   37.3   37.3   0.462
#>  7        12  37.2 Black or … PBO   VIS4   PT3        47.5   47.4   47.6   1.51 
#>  8        13  33.9 Asian      TRT   VIS1   PT4        34.7   34.7   34.8   0.709
#>  9        14  33.7 Asian      TRT   VIS2   PT4        39.6   39.5   39.6   0.468
#> 10        16  54.5 Asian      TRT   VIS4   PT4        50.4   50.3   50.5   1.55 
#> # ℹ 527 more rows
#> # ℹ 1 more variable: .resid <dbl>
```
…
``` r
model_with_control <- linear_reg() |>
  set_engine("mmrm", control = mmrm_control(method = "Satterthwaite")) |>
  fit(FEV1 ~ RACE + ARMCD * AVISIT + us(AVISIT | USUBJID), fev_data)
```

#### Predictions

Lastly, we can also obtain predictions with the
[`predict()`](https://rdrr.io/r/stats/predict.html) method:

``` r
predict(model, new_data = fev_data)
#> # A tibble: 800 × 1
#>    .pred
#>    <dbl>
#>  1  36.2
#>  2  41.1
#>  3  45.9
#>  4  51.9
#>  5  31.0
#>  6  35.8
#>  7  41.3
#>  8  46.0
#>  9  32.5
#> 10  37.3
#> # ℹ 790 more rows
```
…
The result is now a matrix, because that is what the
[`predict()`](https://rdrr.io/r/stats/predict.html) method returns for
`mmrm` objects. Note that this cannot be changed to return a `tibble` at
the moment.

Similarly, we can also use the
[`augment()`](https://generics.r-lib.org/reference/augment.html) method
to add predicted values to a new data set:

``` r
augment(model, new_data = fev_data) |>
  select(USUBJID, AVISIT, .resid, .pred)
#> # A tibble: 800 × 4
#>    USUBJID AVISIT .resid .pred
#>    <fct>   <fct>   <dbl> <dbl>
#>  1 PT1     VIS1    NA     36.2
#>  2 PT1     VIS2    -1.09  41.1
#>  3 PT1     VIS3    NA     45.9
#>  4 PT1     VIS4   -31.4   51.9
#>  5 PT2     VIS1    NA     31.0
#>  6 PT2     VIS2    -4.34  35.8
#>  7 PT2     VIS3    -4.42  41.3
#>  8 PT2     VIS4     2.79  46.0
#>  9 PT3     VIS1    NA     32.5
#> 10 PT3     VIS2    -1.31  37.3
#> # ℹ 790 more rows
```
…
Using `prep()` and `juice()` we can see what the transformed data that
will be used in the model fit looks like.

``` r
mmrm_recipe |>
  prep() |>
  juice()
#> Warning: Categorical variables used in `step_interact()` should probably be avoided;
#> This can lead to differences in dummy variable values that are produced by
#> ?step_dummy (`?recipes::step_dummy()`). Please convert all involved variables
#> to dummy variables first.
#> # A tibble: 800 × 13
#>    USUBJID AVISIT RACE       SEX   FEV1_BL WEIGHT VISITN VISITN2  FEV1 ARMCD_TRT
#>    <fct>   <fct>  <fct>      <fct>   <dbl>  <dbl>  <int>   <dbl> <dbl>     <dbl>
#>  1 PT1     VIS1   Black or … Fema…    25.3  0.677      1  -0.626  NA           1
#>  2 PT1     VIS2   Black or … Fema…    25.3  0.801      2   0.184  40.0         1
#>  3 PT1     VIS3   Black or … Fema…    25.3  0.709      3  -0.836  NA           1
#>  4 PT1     VIS4   Black or … Fema…    25.3  0.809      4   1.60   20.5         1
#>  5 PT2     VIS1   Asian      Male     45.0  0.465      1   0.330  NA           0
#>  6 PT2     VIS2   Asian      Male     45.0  0.233      2  -0.820  31.5         0
#>  7 PT2     VIS3   Asian      Male     45.0  0.360      3   0.487  36.9         0
#>  8 PT2     VIS4   Asian      Male     45.0  0.507      4   0.738  48.8         0
#>  9 PT3     VIS1   Black or … Fema…    43.5  0.682      1   0.576  NA           0
#> 10 PT3     VIS2   Black or … Fema…    43.5  0.892      2  -0.305  36.0         0
#> # ℹ 790 more rows
#> # ℹ 3 more variables: ARMCD_TRT_x_AVISITVIS2 <dbl>,
#> #   ARMCD_TRT_x_AVISITVIS3 <dbl>, ARMCD_TRT_x_AVISITVIS4 <dbl>
```
…
