Package Introduction • mmrm
…
fit |>
  glance()
#> # A tibble: 1 × 4
#>     AIC   BIC logLik deviance
#>   <dbl> <dbl>  <dbl>    <dbl>
#> 1 3407. 3440. -1694.    3387.

Finally, we can use the augment method to return a
merged tibble of the data, fitted values and residuals:

fit |>
  augment()
#> # A tibble: 537 × 8
#>    .rownames  FEV1 RACE                     ARMCD AVISIT USUBJID .fitted  .resid
#>        <dbl> <dbl> <fct>                    <fct> <fct>  <fct>     <dbl>   <dbl>
#>  1         2  40.0 Black or African Americ… TRT   VIS2   PT1        40.0  -1.09 
#>  2         4  20.5 Black or African Americ… TRT   VIS4   PT1        20.5 -31.4  
#>  3         6  31.5 Asian                    PBO   VIS2   PT2        31.5  -4.34 
#>  4         7  36.9 Asian                    PBO   VIS3   PT2        36.9  -4.42 
#>  5         8  48.8 Asian                    PBO   VIS4   PT2        48.8   2.79 
#>  6        10  36.0 Black or African Americ… PBO   VIS2   PT3        36.0  -1.31 
#>  7        12  37.2 Black or African Americ… PBO   VIS4   PT3        37.2 -10.4  
#>  8        13  33.9 Asian                    TRT   VIS1   PT4        33.9  -0.851
#>  9        14  33.7 Asian                    TRT   VIS2   PT4        33.7  -5.81 
#> 10        16  54.5 Asian                    TRT   VIS4   PT4        54.5   4.02 
#> # ℹ 527 more rows

Also here we can specify details for the prediction intervals and
type of residuals via the arguments:

fit |>
  augment(interval = "confidence", type.residuals = "normalized")
#> # A tibble: 537 × 11
#>    .rownames  FEV1 RACE       ARMCD AVISIT USUBJID .fitted .lower .upper .se.fit
#>        <dbl> <dbl> <fct>      <fct> <fct>  <fct>     <dbl>  <dbl>  <dbl>   <dbl>
#>  1         2  40.0 Black or … TRT   VIS2   PT1        40.0   40.0   40.0       0
#>  2         4  20.5 Black or … TRT   VIS4   PT1        20.5   20.5   20.5       0
#>  3         6  31.5 Asian      PBO   VIS2   PT2        31.5   31.5   31.5       0
#>  4         7  36.9 Asian      PBO   VIS3   PT2        36.9   36.9   36.9       0
#>  5         8  48.8 Asian      PBO   VIS4   PT2        48.8   48.8   48.8       0
#>  6        10  36.0 Black or … PBO   VIS2   PT3        36.0   36.0   36.0       0
#>  7        12  37.2 Black or … PBO   VIS4   PT3        37.2   37.2   37.2       0
#>  8        13  33.9 Asian      TRT   VIS1   PT4        33.9   33.9   33.9       0
#>  9        14  33.7 Asian      TRT   VIS2   PT4        33.7   33.7   33.7       0
#> 10        16  54.5 Asian      TRT   VIS4   PT4        54.5   54.5   54.5       0
#> # ℹ 527 more rows
#> # ℹ 1 more variable: .resid <dbl>
…
We can also pass in the full mmrm_control object into
the set_engine() call:

model_with_control <- linear_reg() |>
  set_engine("mmrm", control = mmrm_control(method = "Satterthwaite")) |>
  fit(FEV1 ~ RACE + ARMCD * AVISIT + us(AVISIT | USUBJID), fev_data)

Predictions

Lastly, we can also obtain predictions with the
predict() method:

predict(model, new_data = fev_data)
#> # A tibble: 800 × 1
#>    .pred
#>    <dbl>
#>  1  32.5
#>  2  40.0
#>  3  45.7
#>  4  20.5
#>  5  28.0
#>  6  31.5
#>  7  36.9
#>  8  48.8
#>  9  30.7
#> 10  36.0
#> # ℹ 790 more rows
…
The result is now a matrix, because that is what the
predict() method returns for mmrm objects.
Note that this cannot be changed to return a tibble at the
moment.

Similarly, we can also use the augment() method to add
predicted values to a new data set:

augment(model, new_data = fev_data) |>
  select(USUBJID, AVISIT, .resid, .pred)
#> # A tibble: 800 × 4
#>    USUBJID AVISIT .resid .pred
#>    <fct>   <fct>   <dbl> <dbl>
#>  1 PT1     VIS1       NA  32.5
#>  2 PT1     VIS2        0  40.0
#>  3 PT1     VIS3       NA  45.7
#>  4 PT1     VIS4        0  20.5
#>  5 PT2     VIS1       NA  28.0
#>  6 PT2     VIS2        0  31.5
#>  7 PT2     VIS3        0  36.9
#>  8 PT2     VIS4        0  48.8
#>  9 PT3     VIS1       NA  30.7
#> 10 PT3     VIS2        0  36.0
#> # ℹ 790 more rows
…
mmrm_recipe <- recipe(FEV1 ~ ., data = fev_data) |>
  step_dummy(ARMCD) |>
  step_interact(terms = ~ starts_with("ARMCD"):AVISIT)

Using prep() and juice() we can see what
the transformed data that will be used in the model fit looks like.

mmrm_recipe |>
  prep() |>
  juice()
#> # A tibble: 800 × 13
#>    USUBJID AVISIT RACE       SEX   FEV1_BL WEIGHT VISITN VISITN2  FEV1 ARMCD_TRT
#>    <fct>   <fct>  <fct>      <fct>   <dbl>  <dbl>  <int>   <dbl> <dbl>     <dbl>
#>  1 PT1     VIS1   Black or … Fema…    25.3  0.677      1  -0.626  NA           1
#>  2 PT1     VIS2   Black or … Fema…    25.3  0.801      2   0.184  40.0         1
#>  3 PT1     VIS3   Black or … Fema…    25.3  0.709      3  -0.836  NA           1
#>  4 PT1     VIS4   Black or … Fema…    25.3  0.809      4   1.60   20.5         1
#>  5 PT2     VIS1   Asian      Male     45.0  0.465      1   0.330  NA           0
#>  6 PT2     VIS2   Asian      Male     45.0  0.233      2  -0.820  31.5         0
#>  7 PT2     VIS3   Asian      Male     45.0  0.360      3   0.487  36.9         0
#>  8 PT2     VIS4   Asian      Male     45.0  0.507      4   0.738  48.8         0
#>  9 PT3     VIS1   Black or … Fema…    43.5  0.682      1   0.576  NA           0
#> 10 PT3     VIS2   Black or … Fema…    43.5  0.892      2  -0.305  36.0         0
#> # ℹ 790 more rows
#> # ℹ 3 more variables: ARMCD_TRT_x_AVISITVIS2 <dbl>,
#> #   ARMCD_TRT_x_AVISITVIS3 <dbl>, ARMCD_TRT_x_AVISITVIS4 <dbl>
…
