• mmrm
…
mmrm_recipe <- recipe(FEV1 ~ ., data = fev_data) |>
  step_dummy(ARMCD) |>
  step_interact(terms = ~ starts_with("ARMCD"):AVISIT)

Using prep() and juice() we can see what
the transformed data that will be used in the model fit looks like.

mmrm_recipe |>
  prep() |>
  juice()

## # A tibble: 800 × 13
##    USUBJID AVISIT RACE       SEX   FEV1_BL WEIGHT VISITN VISITN2  FEV1 ARMCD_TRT
##    <fct>   <fct>  <fct>      <fct>   <dbl>  <dbl>  <int>   <dbl> <dbl>     <dbl>
##  1 PT1     VIS1   Black or … Fema…    25.3  0.677      1  -0.626  NA           1
##  2 PT1     VIS2   Black or … Fema…    25.3  0.801      2   0.184  40.0         1
##  3 PT1     VIS3   Black or … Fema…    25.3  0.709      3  -0.836  NA           1
##  4 PT1     VIS4   Black or … Fema…    25.3  0.809      4   1.60   20.5         1
##  5 PT2     VIS1   Asian      Male     45.0  0.465      1   0.330  NA           0
##  6 PT2     VIS2   Asian      Male     45.0  0.233      2  -0.820  31.5         0
##  7 PT2     VIS3   Asian      Male     45.0  0.360      3   0.487  36.9         0
##  8 PT2     VIS4   Asian      Male     45.0  0.507      4   0.738  48.8         0
##  9 PT3     VIS1   Black or … Fema…    43.5  0.682      1   0.576  NA           0
## 10 PT3     VIS2   Black or … Fema…    43.5  0.892      2  -0.305  36.0         0
## # ℹ 790 more rows
## # ℹ 3 more variables: ARMCD_TRT_x_AVISITVIS2 <dbl>,
## #   ARMCD_TRT_x_AVISITVIS3 <dbl>, ARMCD_TRT_x_AVISITVIS4 <dbl>
…
